<?xml version="1.0" encoding="UTF-8"?>
<!DOCTYPE svg PUBLIC "-//W3C//DTD SVG 1.0//EN" "http://www.w3.org/TR/2001/REC-SVG-20010904/DTD/svg10.dtd">
<!-- Creator: CorelDRAW X7 -->
<svg xmlns="http://www.w3.org/2000/svg" xml:space="preserve" width="8.5in" height="11in" version="1.0" style="shape-rendering:geometricPrecision; text-rendering:geometricPrecision; image-rendering:optimizeQuality; fill-rule:evenodd; clip-rule:evenodd"
viewBox="0 0 8500 11000"
 xmlns:xlink="http://www.w3.org/1999/xlink">
 <defs>
  <style type="text/css">
   <![CDATA[
    .fil0 {fill:#FEFEFE}
   ]]>
  </style>
 </defs>
 <g id="Layer_x0020_1">
  <metadata id="CorelCorpID_0Corel-Layer"/>
  <path class="fil0" d="M6265 4900c801,-30 1286,79 1549,-775l-5358 -9c-622,-1 -1175,262 -1348,783l4194 13 -3 2167 923 2 43 -2181z"/>
  <path class="fil0" d="M2309 5825l1652 -1 1 551 -960 6c-866,-15 -1470,-338 -990,-1315l-1024 13c-458,2188 2248,2118 3696,1967l-14 -1831 -1717 33c-287,6 -495,209 -644,577z"/>
 </g>
</svg>
